================================================================================
HPLinpack 2.1  --  High-Performance Linpack benchmark  --   October 26, 2012
Written by A. Petitet and R. Clint Whaley,  Innovative Computing Laboratory, UTK
Modified by Piotr Luszczek, Innovative Computing Laboratory, UTK
Modified by Julien Langou, University of Colorado Denver
================================================================================

An explanation of the input/output parameters follows:
T/V    : Wall time / encoded variant.
N      : The order of the coefficient matrix A.
NB     : The partitioning blocking factor.
P      : The number of process rows.
Q      : The number of process columns.
Time   : Time in seconds to solve the linear system.
Gflops : Rate of execution for solving the linear system.

The following parameter values will be used:

N      :   20000    30000 
NB     :       2        4        8       16 
PMAP   : Row-major process mapping
P      :       6        6        4 
Q      :       6        3        4 
PFACT  :    Left 
NBMIN  :       2 
NDIV   :       2 
RFACT  :    Left 
BCAST  :   1ring 
DEPTH  :       0 
SWAP   : Mix (threshold = 64)
L1     : transposed form
U      : transposed form
EQUIL  : yes
ALIGN  : 8 double precision words

--------------------------------------------------------------------------------

- The matrix A is randomly generated for each test.
- The following scaled residual check will be computed:
      ||Ax-b||_oo / ( eps * ( || x ||_oo * || A ||_oo + || b ||_oo ) * N )
- The relative machine precision (eps) is taken to be               1.110223e-16
- Computational tests pass if scaled residuals are less than                16.0

================================================================================
T/V                N    NB     P     Q               Time                 Gflops
--------------------------------------------------------------------------------
WR00L2L2       20000     2     6     6             184.89              2.885e+01
HPL_pdgesv() start time Fri Dec 25 21:27:47 2015

HPL_pdgesv() end time   Fri Dec 25 21:30:52 2015

--------------------------------------------------------------------------------
||Ax-b||_oo/(eps*(||A||_oo*||x||_oo+||b||_oo)*N)=        0.0032730 ...... PASSED
================================================================================
T/V                N    NB     P     Q               Time                 Gflops
--------------------------------------------------------------------------------
WR00L2L2       20000     4     6     6             118.31              4.509e+01
HPL_pdgesv() start time Fri Dec 25 21:30:53 2015

HPL_pdgesv() end time   Fri Dec 25 21:32:51 2015

--------------------------------------------------------------------------------
||Ax-b||_oo/(eps*(||A||_oo*||x||_oo+||b||_oo)*N)=        0.0027495 ...... PASSED
================================================================================
T/V                N    NB     P     Q               Time                 Gflops
--------------------------------------------------------------------------------
WR00L2L2       20000     8     6     6              73.37              7.270e+01
HPL_pdgesv() start time Fri Dec 25 21:32:52 2015

HPL_pdgesv() end time   Fri Dec 25 21:34:06 2015

--------------------------------------------------------------------------------
||Ax-b||_oo/(eps*(||A||_oo*||x||_oo+||b||_oo)*N)=        0.0009758 ...... PASSED
================================================================================
T/V                N    NB     P     Q               Time                 Gflops
--------------------------------------------------------------------------------
WR00L2L2       20000    16     6     6              67.64              7.886e+01
HPL_pdgesv() start time Fri Dec 25 21:34:07 2015

HPL_pdgesv() end time   Fri Dec 25 21:35:14 2015

--------------------------------------------------------------------------------
||Ax-b||_oo/(eps*(||A||_oo*||x||_oo+||b||_oo)*N)=        0.0008253 ...... PASSED
================================================================================
T/V                N    NB     P     Q               Time                 Gflops
--------------------------------------------------------------------------------
WR00L2L2       30000     2     6     6             692.16              2.601e+01
HPL_pdgesv() start time Fri Dec 25 21:35:16 2015

HPL_pdgesv() end time   Fri Dec 25 21:46:49 2015

--------------------------------------------------------------------------------
||Ax-b||_oo/(eps*(||A||_oo*||x||_oo+||b||_oo)*N)=        0.0028951 ...... PASSED
================================================================================
T/V                N    NB     P     Q               Time                 Gflops
--------------------------------------------------------------------------------
WR00L2L2       30000     4     6     6             390.04              4.615e+01
HPL_pdgesv() start time Fri Dec 25 21:46:51 2015

HPL_pdgesv() end time   Fri Dec 25 21:53:22 2015

--------------------------------------------------------------------------------
||Ax-b||_oo/(eps*(||A||_oo*||x||_oo+||b||_oo)*N)=        0.0023082 ...... PASSED
================================================================================
T/V                N    NB     P     Q               Time                 Gflops
--------------------------------------------------------------------------------
WR00L2L2       30000     8     6     6             214.48              8.393e+01
HPL_pdgesv() start time Fri Dec 25 21:53:24 2015

HPL_pdgesv() end time   Fri Dec 25 21:56:59 2015

--------------------------------------------------------------------------------
||Ax-b||_oo/(eps*(||A||_oo*||x||_oo+||b||_oo)*N)=        0.0011537 ...... PASSED
================================================================================
T/V                N    NB     P     Q               Time                 Gflops
--------------------------------------------------------------------------------
WR00L2L2       30000    16     6     6             188.89              9.530e+01
HPL_pdgesv() start time Fri Dec 25 21:57:01 2015

HPL_pdgesv() end time   Fri Dec 25 22:00:10 2015

--------------------------------------------------------------------------------
||Ax-b||_oo/(eps*(||A||_oo*||x||_oo+||b||_oo)*N)=        0.0009015 ...... PASSED
================================================================================
T/V                N    NB     P     Q               Time                 Gflops
--------------------------------------------------------------------------------
WR00L2L2       20000     2     6     3             373.06              1.430e+01
HPL_pdgesv() start time Fri Dec 25 22:00:13 2015

HPL_pdgesv() end time   Fri Dec 25 22:06:26 2015

--------------------------------------------------------------------------------
||Ax-b||_oo/(eps*(||A||_oo*||x||_oo+||b||_oo)*N)=        0.0034596 ...... PASSED
================================================================================
T/V                N    NB     P     Q               Time                 Gflops
--------------------------------------------------------------------------------
WR00L2L2       20000     4     6     3             247.29              2.157e+01
HPL_pdgesv() start time Fri Dec 25 22:06:28 2015

HPL_pdgesv() end time   Fri Dec 25 22:10:36 2015

--------------------------------------------------------------------------------
||Ax-b||_oo/(eps*(||A||_oo*||x||_oo+||b||_oo)*N)=        0.0036155 ...... PASSED
================================================================================
T/V                N    NB     P     Q               Time                 Gflops
--------------------------------------------------------------------------------
WR00L2L2       20000     8     6     3             144.85              3.682e+01
HPL_pdgesv() start time Fri Dec 25 22:10:38 2015

HPL_pdgesv() end time   Fri Dec 25 22:13:03 2015

--------------------------------------------------------------------------------
||Ax-b||_oo/(eps*(||A||_oo*||x||_oo+||b||_oo)*N)=        0.0014071 ...... PASSED
================================================================================
T/V                N    NB     P     Q               Time                 Gflops
--------------------------------------------------------------------------------
WR00L2L2       20000    16     6     3             132.48              4.026e+01
HPL_pdgesv() start time Fri Dec 25 22:13:05 2015

HPL_pdgesv() end time   Fri Dec 25 22:15:18 2015

--------------------------------------------------------------------------------
||Ax-b||_oo/(eps*(||A||_oo*||x||_oo+||b||_oo)*N)=        0.0010401 ...... PASSED
================================================================================
T/V                N    NB     P     Q               Time                 Gflops
--------------------------------------------------------------------------------
WR00L2L2       30000     2     6     3            1335.41              1.348e+01
HPL_pdgesv() start time Fri Dec 25 22:15:22 2015

HPL_pdgesv() end time   Fri Dec 25 22:37:37 2015

--------------------------------------------------------------------------------
||Ax-b||_oo/(eps*(||A||_oo*||x||_oo+||b||_oo)*N)=        0.0036700 ...... PASSED
================================================================================
T/V                N    NB     P     Q               Time                 Gflops
--------------------------------------------------------------------------------
WR00L2L2       30000     4     6     3             754.54              2.386e+01
HPL_pdgesv() start time Fri Dec 25 22:37:43 2015

HPL_pdgesv() end time   Fri Dec 25 22:50:18 2015

--------------------------------------------------------------------------------
||Ax-b||_oo/(eps*(||A||_oo*||x||_oo+||b||_oo)*N)=        0.0031906 ...... PASSED
================================================================================
T/V                N    NB     P     Q               Time                 Gflops
--------------------------------------------------------------------------------
WR00L2L2       30000     8     6     3             416.65              4.320e+01
HPL_pdgesv() start time Fri Dec 25 22:50:23 2015

HPL_pdgesv() end time   Fri Dec 25 22:57:19 2015

--------------------------------------------------------------------------------
||Ax-b||_oo/(eps*(||A||_oo*||x||_oo+||b||_oo)*N)=        0.0017529 ...... PASSED
================================================================================
T/V                N    NB     P     Q               Time                 Gflops
--------------------------------------------------------------------------------
WR00L2L2       30000    16     6     3             361.05              4.986e+01
HPL_pdgesv() start time Fri Dec 25 22:57:24 2015

HPL_pdgesv() end time   Fri Dec 25 23:03:25 2015

--------------------------------------------------------------------------------
||Ax-b||_oo/(eps*(||A||_oo*||x||_oo+||b||_oo)*N)=        0.0011129 ...... PASSED
================================================================================
T/V                N    NB     P     Q               Time                 Gflops
--------------------------------------------------------------------------------
WR00L2L2       20000     2     4     4             399.62              1.335e+01
HPL_pdgesv() start time Fri Dec 25 23:03:30 2015

HPL_pdgesv() end time   Fri Dec 25 23:10:09 2015

--------------------------------------------------------------------------------
||Ax-b||_oo/(eps*(||A||_oo*||x||_oo+||b||_oo)*N)=        0.0031571 ...... PASSED
================================================================================
T/V                N    NB     P     Q               Time                 Gflops
--------------------------------------------------------------------------------
WR00L2L2       20000     4     4     4             221.84              2.404e+01
HPL_pdgesv() start time Fri Dec 25 23:10:12 2015

HPL_pdgesv() end time   Fri Dec 25 23:13:54 2015

--------------------------------------------------------------------------------
||Ax-b||_oo/(eps*(||A||_oo*||x||_oo+||b||_oo)*N)=        0.0026897 ...... PASSED
================================================================================
T/V                N    NB     P     Q               Time                 Gflops
--------------------------------------------------------------------------------
WR00L2L2       20000     8     4     4             108.20              4.930e+01
HPL_pdgesv() start time Fri Dec 25 23:13:56 2015

HPL_pdgesv() end time   Fri Dec 25 23:15:45 2015

--------------------------------------------------------------------------------
||Ax-b||_oo/(eps*(||A||_oo*||x||_oo+||b||_oo)*N)=        0.0013238 ...... PASSED
================================================================================
T/V                N    NB     P     Q               Time                 Gflops
--------------------------------------------------------------------------------
WR00L2L2       20000    16     4     4             104.50              5.104e+01
HPL_pdgesv() start time Fri Dec 25 23:15:47 2015

HPL_pdgesv() end time   Fri Dec 25 23:17:32 2015

--------------------------------------------------------------------------------
||Ax-b||_oo/(eps*(||A||_oo*||x||_oo+||b||_oo)*N)=        0.0008661 ...... PASSED
================================================================================
T/V                N    NB     P     Q               Time                 Gflops
--------------------------------------------------------------------------------
WR00L2L2       30000     2     4     4            1418.17              1.269e+01
HPL_pdgesv() start time Fri Dec 25 23:17:36 2015

HPL_pdgesv() end time   Fri Dec 25 23:41:14 2015

--------------------------------------------------------------------------------
||Ax-b||_oo/(eps*(||A||_oo*||x||_oo+||b||_oo)*N)=        0.0035024 ...... PASSED
================================================================================
T/V                N    NB     P     Q               Time                 Gflops
--------------------------------------------------------------------------------
WR00L2L2       30000     4     4     4             694.33              2.593e+01
HPL_pdgesv() start time Fri Dec 25 23:41:21 2015

HPL_pdgesv() end time   Fri Dec 25 23:52:55 2015

--------------------------------------------------------------------------------
||Ax-b||_oo/(eps*(||A||_oo*||x||_oo+||b||_oo)*N)=        0.0025084 ...... PASSED
================================================================================
T/V                N    NB     P     Q               Time                 Gflops
--------------------------------------------------------------------------------
WR00L2L2       30000     8     4     4             382.45              4.707e+01
HPL_pdgesv() start time Fri Dec 25 23:53:01 2015

HPL_pdgesv() end time   Fri Dec 25 23:59:23 2015

--------------------------------------------------------------------------------
||Ax-b||_oo/(eps*(||A||_oo*||x||_oo+||b||_oo)*N)=        0.0014764 ...... PASSED
================================================================================
T/V                N    NB     P     Q               Time                 Gflops
--------------------------------------------------------------------------------
WR00L2L2       30000    16     4     4             394.14              4.567e+01
HPL_pdgesv() start time Fri Dec 25 23:59:29 2015

HPL_pdgesv() end time   Sat Dec 26 00:06:03 2015

--------------------------------------------------------------------------------
||Ax-b||_oo/(eps*(||A||_oo*||x||_oo+||b||_oo)*N)=        0.0011067 ...... PASSED
================================================================================

Finished     24 tests with the following results:
             24 tests completed and passed residual checks,
              0 tests completed and failed residual checks,
              0 tests skipped because of illegal input values.
--------------------------------------------------------------------------------

End of Tests.
================================================================================
